module gitlab.com/0xhyacinths/dscan/server

go 1.18

require (
	github.com/grpc-ecosystem/grpc-gateway v1.16.0
	github.com/grpc-ecosystem/grpc-gateway/v2 v2.11.0
	github.com/improbable-eng/grpc-web v0.15.0
	google.golang.org/genproto v0.0.0-20220719170305-83ca9fad585f
	google.golang.org/grpc v1.48.0
	google.golang.org/grpc/cmd/protoc-gen-go-grpc v1.2.0
	google.golang.org/protobuf v1.28.0
)

require (
	github.com/cenkalti/backoff/v4 v4.1.1 // indirect
	github.com/desertbit/timer v0.0.0-20180107155436-c41aec40b27f // indirect
	github.com/golang/glog v1.0.0 // indirect
	github.com/golang/protobuf v1.5.2 // indirect
	github.com/klauspost/compress v1.11.7 // indirect
	github.com/nanmu42/etherscan-api v1.8.0 // indirect
	github.com/rs/cors v1.7.0 // indirect
	golang.org/x/net v0.0.0-20220624214902-1bab6f366d9e // indirect
	golang.org/x/sys v0.0.0-20220610221304-9f5ed59c137d // indirect
	golang.org/x/text v0.3.7 // indirect
	gopkg.in/yaml.v3 v3.0.1 // indirect
	nhooyr.io/websocket v1.8.6 // indirect
)
